// Jest Snapshot v1, https://goo.gl/fbAQLP

exports[`orders.js clearOrderStatus dispatches 1`] = `
Array [
  Object {
    "type": "ORDERS__CLEAR_ORDER_STATUS",
  },
]
`;

exports[`orders.js createOrder calls service and dispatches result 1`] = `
Array [
  Object {
    "order": Object {
      "id": 1,
    },
    "type": "ORDERS__CREATE_ORDER",
  },
]
`;

exports[`orders.js createOrder dispatches error 1`] = `
Array [
  Object {
    "errors": undefined,
    "type": "ORDERS__ORDERS_ERROR",
  },
]
`;

exports[`orders.js reducer updates state on clearOrderStatus 1`] = `
Object {
  "canLoadMoreOrders": true,
  "createdOrder": false,
  "errors": null,
  "order": null,
  "ordersForOffer": null,
  "ordersPage": 0,
  "totalProducts": 0,
  "totalUnratedProducts": 0,
}
`;

exports[`orders.js reducer updates state on createOrder 1`] = `
Object {
  "canLoadMoreOrders": true,
  "createdOrder": true,
  "errors": null,
  "order": Object {
    "id": 1,
  },
  "ordersForOffer": null,
  "ordersPage": 0,
  "totalProducts": 0,
  "totalUnratedProducts": 0,
}
`;
