// Jest Snapshot v1, https://goo.gl/fbAQLP

exports[`paymentMethods.js addPaymentMethod calls service and dispatches result 1`] = `
Array [
  Object {
    "cardMessage": "Nice, your card has been added!",
    "type": "PAYMENT_METHODS__ADD_PAYMENT_METHOD",
  },
]
`;

exports[`paymentMethods.js addPaymentMethod dispatches error 1`] = `
Array [
  Object {
    "errors": undefined,
    "type": "PAYMENT_METHODS__PAYMENT_METHODS_ERROR",
  },
]
`;

exports[`paymentMethods.js getInitData calls service and dispatches result 1`] = `
Array [
  Object {
    "type": "PAYMENT_METHODS__GET_PAYMENT_METHODS",
  },
  Object {
    "errors": undefined,
    "type": "PAYMENT_METHODS__PAYMENT_METHODS_ERROR",
  },
]
`;

exports[`paymentMethods.js getInitData dispatches error 1`] = `
Array [
  Object {
    "type": "PAYMENT_METHODS__GET_PAYMENT_METHODS",
  },
  Object {
    "errors": undefined,
    "type": "PAYMENT_METHODS__PAYMENT_METHODS_ERROR",
  },
]
`;

exports[`paymentMethods.js reducer updates state on addPaymentMethod 1`] = `
Object {
  "addedCard": true,
  "cardMessage": "baz",
  "creditTotal": "",
  "creditTotalDisplay": "",
  "errors": null,
  "loading": false,
  "paymentMethods": Array [],
  "refundsAndCredits": Array [],
}
`;

exports[`paymentMethods.js reducer updates state on clearPaymentMethodStatus 1`] = `
Object {
  "cardMessage": "",
  "creditTotal": "",
  "creditTotalDisplay": "",
  "errors": null,
  "loading": false,
  "paymentMethods": Array [],
  "refundsAndCredits": Array [],
}
`;

exports[`paymentMethods.js reducer updates state on getInitData 1`] = `
Object {
  "cardMessage": "",
  "creditTotal": "",
  "creditTotalDisplay": undefined,
  "errors": null,
  "loading": false,
  "paymentMethods": Array [
    Object {
      "id": 1,
    },
    Object {
      "id": 3,
    },
  ],
  "refundsAndCredits": undefined,
}
`;

exports[`paymentMethods.js reducer updates state on removePaymentMethod 1`] = `
Object {
  "cardMessage": "bar",
  "creditTotal": "",
  "creditTotalDisplay": "",
  "errors": null,
  "loading": false,
  "paymentMethods": Array [
    Object {
      "id": 1,
    },
  ],
  "refundsAndCredits": Array [],
  "removedCard": true,
}
`;

exports[`paymentMethods.js reducer updates state on updatePaymentMethod 1`] = `
Object {
  "cardMessage": "foo",
  "creditTotal": "",
  "creditTotalDisplay": "",
  "errors": null,
  "loading": false,
  "paymentMethods": Array [
    Object {
      "id": 1,
    },
    Object {
      "id": 2,
    },
  ],
  "refundsAndCredits": Array [],
  "updatedCard": true,
}
`;

exports[`paymentMethods.js removePaymentMethod calls service and updates result 1`] = `
Array [
  Object {
    "cardMessage": "Nice, your card has been deleted!",
    "paymentMethods": Array [
      Object {
        "id": 1,
      },
    ],
    "type": "PAYMENT_METHODS__REMOVE_PAYMENT_METHOD",
  },
]
`;

exports[`paymentMethods.js removePaymentMethod dispatches error 1`] = `
Array [
  Object {
    "errors": undefined,
    "type": "PAYMENT_METHODS__PAYMENT_METHODS_ERROR",
  },
]
`;

exports[`paymentMethods.js updatePaymentMethod calls service and updates result 1`] = `
Array [
  Object {
    "cardMessage": "Nice, saved new default card!",
    "paymentMethods": Array [
      Object {
        "id": 1,
      },
    ],
    "type": "PAYMENT_METHODS__UPDATE_PAYMENT_METHOD",
  },
]
`;

exports[`paymentMethods.js updatePaymentMethod dispatches error 1`] = `
Array [
  Object {
    "errors": undefined,
    "type": "PAYMENT_METHODS__PAYMENT_METHODS_ERROR",
  },
]
`;
