{
  "IcoMoonType": "selection",
  "icons": [
    {
      "icon": {
        "paths": [
          "M1422.222 113.778c-62.838 0-113.778 50.94-113.778 113.778 0-26.080 0-13.37 0 38.129 178.279 0 595.464 0 1251.556 0 0 58.508 0 118.95 0 181.327-64.189 0-1137.778 0-1251.556 0 0 75.753 0 192.231 0 349.433 0 62.838 50.94 113.778 113.778 113.778h1024c62.838 0 113.778-50.94 113.778-113.778 0-155.304 0-271.781 0-349.433 0-48.768 0-121.92 0-219.456 0-62.838-50.94-113.778-113.778-113.778h-1024zM1422.222 0h1024c125.675-0 227.556 101.88 227.556 227.556v568.889c0 125.675-101.88 227.556-227.556 227.556h-1024c-125.675 0-227.556-101.88-227.556-227.556v-568.889c0-125.675 101.88-227.556 227.556-227.556z",
          "M56.889 696.889h853.333c23.564 0 42.667 19.103 42.667 42.667s-19.103 42.667-42.667 42.667h-853.333c-23.564 0-42.667-19.103-42.667-42.667s19.103-42.667 42.667-42.667z",
          "M398.222 412.444h512c23.564 0 42.667 19.103 42.667 42.667s-19.103 42.667-42.667 42.667h-512c-23.564 0-42.667-19.103-42.667-42.667s19.103-42.667 42.667-42.667z"
        ],
        "attrs": [
          {},
          {
            "stroke": "rgb(0, 0, 0)",
            "strokeLinejoin": "miter",
            "strokeLinecap": "butt",
            "strokeMiterlimit": "4",
            "strokeWidth": 28.444444444444443
          },
          {
            "stroke": "rgb(0, 0, 0)",
            "strokeLinejoin": "miter",
            "strokeLinecap": "butt",
            "strokeMiterlimit": "4",
            "strokeWidth": 28.444444444444443
          }
        ],
        "width": 2674,
        "isMulticolor": false,
        "isMulticolor2": true,
        "grid": 0,
        "tags": [
          "Card"
        ]
      },
      "attrs": [
        {},
        {
          "stroke": "rgb(0, 0, 0)",
          "strokeLinejoin": "miter",
          "strokeLinecap": "butt",
          "strokeMiterlimit": "4",
          "strokeWidth": 28.444444444444443
        },
        {
          "stroke": "rgb(0, 0, 0)",
          "strokeLinejoin": "miter",
          "strokeLinecap": "butt",
          "strokeMiterlimit": "4",
          "strokeWidth": 28.444444444444443
        }
      ],
      "properties": {
        "order": 5,
        "id": 0,
        "name": "credit-card",
        "prevSize": 64,
        "code": 59648
      },
      "setIdx": 1,
      "setId": 2,
      "iconIdx": 0
    }
  ],
  "height": 1024,
  "metadata": {
    "name": "icomoon"
  },
  "preferences": {
    "showGlyphs": true,
    "showQuickUse": false,
    "showQuickUse2": true,
    "showSVGs": true,
    "fontPref": {
      "prefix": "icon-",
      "metadata": {
        "fontFamily": "icomoon",
        "majorVersion": 1,
        "minorVersion": 0
      },
      "metrics": {
        "emSize": 1024,
        "baseline": 6.25,
        "whitespace": 50
      },
      "embed": false,
      "autoHost": true
    },
    "imagePref": {
      "prefix": "icon-",
      "png": true,
      "useClassSelector": true,
      "color": 0,
      "bgColor": 16777215,
      "classSelector": ".icon",
      "name": "icomoon"
    },
    "historySize": 50,
    "showCodes": true,
    "gridSize": 16,
    "quickUsageToken": {
      "UntitledProject": "MTBjNDBkYWExMDRiMTZjYTQ2MjFjOGViMjk3ZmFmNzYjMSMxNTM2ODg0NzAyIyMj"
    }
  }
}